[{
    "id": "default",
    "global-theme" : {
      "nav-main-color": "#191D35",
      "nav-height": "40px",
      "nav-dropdown-hover-color": "#bdc8e6",
      "nav-dropdown-background-color": "#f2f2f2"
    },
    "home-workspace" : {
      "current-workspace-main-color": "#c8c2c5"
    },
    "test-case-workspace" : {
      "current-workspace-main-color": "#037F4C"
    },
    "requirement-workspace" : {
      "current-workspace-main-color": "#0078AE"
    },
    "campaign-workspace" : {
      "current-workspace-main-color": "#5E287B"
    },
    "custom-report-workspace" : {
      "current-workspace-main-color": "#750021"
    },
    "administration-workspace" : {
      "current-workspace-main-color": "#999"
    },
    "bugtracker-workspace" : {
      "current-workspace-main-color": "#EE425A"
    },
    "automation-workspace" : {
      "current-workspace-main-color": "#CCCC00"
    }
  },
  {
    "id": "halloween",
    "global-theme" : {
      "nav-main-color": "#191D35",
      "nav-height": "30px",
      "nav-dropdown-hover-color": "#bdc8e6",
      "nav-dropdown-background-color": "#f2f2f2"
    },
    "test-case-workspace" : {
      "current-workspace-main-color": "#8b79ac"
    },
    "requirement-workspace" : {
      "current-workspace-main-color": "#ff8400"
    },
    "campaign-workspace" : {
      "current-workspace-main-color": "#002f7b"
    },
    "custom-report-workspace" : {
      "current-workspace-main-color": "#1f1f21"
    },
    "home-workspace" : {
      "current-workspace-main-color": "#c8c2c5"
    },
    "administration-workspace" : {
      "current-workspace-main-color": "#999"
    },
    "bugtracker-workspace" : {
      "current-workspace-main-color": "#EE425A"
    },
    "automation-workspace" : {
      "current-workspace-main-color": "#CCCC00"
    }
  }
]
