{
	"$schema": "http://json-schema.org/draft-07/schema",
	"$id": "http://example.com/example.json",
	"type": "object",
	"title": "The Root Schema",
	"description": "The root schema comprises the entire JSON document.",
	"required": [
		"count",
		"idAttribute",
		"dataRows"
	],
	"properties": {
		"count": {
			"$id": "#/properties/count",
			"type": "integer",
			"title": "The Count Schema",
			"description": "An explanation about the purpose of this instance.",
			"default": 0,
			"examples": [
				2
			]
		},
		"idAttribute": {
			"$id": "#/properties/idAttribute",
			"title": "The Idattribute Schema",
			"description": "An explanation about the purpose of this instance.",
			"default": null,
			"examples": [
				null
			]
		},
		"dataRows": {
			"$id": "#/properties/dataRows",
			"type": "array",
			"title": "The Datarows Schema",
			"description": "An explanation about the purpose of this instance.",
			"default": [],
			"items": {
				"$id": "#/properties/dataRows/items",
				"type": "object",
				"title": "The Items Schema",
				"description": "An explanation about the purpose of this instance.",
				"default": {},
				"examples": [
				],
				"required": [
					"id",
					"children",
					"state",
					"data",
					"parentRowId"
				],
				"properties": {
					"id": {
						"$id": "#/properties/dataRows/items/properties/id",
						"type": "string",
						"title": "The Id Schema",
						"description": "An explanation about the purpose of this instance.",
						"default": "",
						"examples": [
							"-1"
						]
					},
					"children": {
						"$id": "#/properties/dataRows/items/properties/children",
						"type": "array",
						"title": "The Children Schema",
						"description": "An explanation about the purpose of this instance.",
						"default": []
					},
					"state": {
						"$id": "#/properties/dataRows/items/properties/state",
						"type": "string",
						"title": "The State Schema",
						"description": "An explanation about the purpose of this instance.",
						"default": "",
						"examples": [
							"leaf"
						]
					},
					"data": {
						"$id": "#/properties/dataRows/items/properties/data",
						"type": "object",
						"title": "The Data Schema",
						"description": "An explanation about the purpose of this instance.",
						"default": {},
						"properties": {
						}
					},
					"projectId": {
						"$id": "#/properties/dataRows/items/properties/projectId",
						"type": ["integer", "null"],
						"title": "The Projectid Schema",
						"description": "An explanation about the purpose of this instance.",
						"default": 0,
						"examples": [
							-1
						]
					},
					"parentRowId": {
						"$id": "#/properties/dataRows/items/properties/parentRowId",
						"title": "The Parentrowid Schema",
						"description": "An explanation about the purpose of this instance.",
						"default": null,
						"examples": [
							null
						]
					}
				}
			}
		}
	}
}
