{
  "extends": "../../tslint.json",
  "rules": {
    "directive-selector": [
      true,
      "attribute",
      "sqtmCore",
      "camelCase"
    ],
    "component-selector": [
      true,
      "element",
      "sqtm-core",
      "kebab-case"
    ],
    "import-blacklist": [
      true,
      "rxjs/Rx",
      ["rxjs/internal.+"],
      "sqtm-core",
      ["(..\\/)+sqtm-core.+"],
      ["(..\\/)+cypress.+"],
      ["sqtm-core/.+"],
      ["cypress/.+"]
    ]
  }
}
