@startuml
|Client Angular|
start
partition constructor {
:Load the Table Definition;
}
partition "Load Initial Data" {
:Method LoadInitialData;
partition "Find and load active configuration" {
if(Can this table save transient conf ?) then (no) 
  : Filter configuration selectedConfiguration = 'default'
  and default filter conf loaded as active conf;
  : Display configuration selectedConfiguration = 'default'
  and default display conf loaded as active conf;
  else (yes)
  partition "Find filter and display configuration available" {
  if(this table can use user defined configurations ?) then (no only system conf)
  : Push the system filter configurations
   to available configurations;
  : Push the system filter configurations
       to available configurations;
  else (yes)
  : Ask the list of configurations to server;
  |Server|
  : Find the list of filter configurations
    for current user and current table/domain;
  : Find the list of display configurations
    for current user and current table/domain;
  |Client Angular|
  : Push the system filter configurations
    to available configurations;
  : Push the system display configurations
    to available configurations;
  endif
  : The grid has now a complete list of available filter configurations and display configurations;
  }

  if(This table has some conf persisted in local storage ?) then(true)
    :Validate the schema of persisted conf;
      if(Configuration is malformed) then (true)
        : Filter configuration selectedConfiguration = 'default'
        and default filter conf loaded as active conf;
        : Display configuration selectedConfiguration = 'default'
        and default display conf loaded as active conf;;
        else(false)
        : Load the data;
          if(a transient filter configuration is present in data
          with it's original conf name) then (yes)
          : Load the transient filter configuration as active filter configuration;
          elseif (an named configuration is used) then (yes)
            if(selected filter configuration exist) then (yes)
            : Filter configuration selectedConfiguration = 'named conf';
            else
              : Filter configuration selectedConfiguration = 'default'
              and default filter conf loaded as active conf;
            endif
          else (no filter conf in persisted data)
          : Filter configuration selectedConfiguration = 'default'
           and default filter conf loaded as active conf;
          endif
          : The filter configuration is either resolved or loaded in pending slot;
          if(a transient display configuration is present in data
          with it's original conf name) then (yes)
          : Load the transient display configuration as active display configuration;
          elseif (an named configuration is used) then (yes)
            if(selected display configuration exist) then (yes)
            : Display configuration selectedConfiguration = 'named conf'
            and named display conf loaded as active conf;
            else
            : Display configuration selectedConfiguration = 'default'
            and default display conf loaded as active conf;
            endif
          else (no display conf in persisted data)
          : Display configuration selectedConfiguration = 'default'
          and default display conf loaded as active conf;
        endif
      endif
  else(No data in local storage for current user)
    : Filter configuration selectedConfiguration = 'default' and default conf loaded as active conf;
    : Display configuration selectedConfiguration = 'default';
  endif
endif
}
:A configuration is active;
partition "find columns" {
if(This table has project perimeter) then (yes)
  if(The active configuration has a project perimeter) then (yes)
  : Filter the perimeter, with valid projects for user;
    note left
    Custom perimeter should be possible
    but will probably need a xhr request
    end note
  : Inject the dynamics columns;
  else
  :Retrieve the project filtered from ReferentialDataService;
  :Inject the dynamic columns;
  endif
  else
  : No dynamic columns;
endif
:The Table has now his complete set of columns (System + Project Dependant);
}
partition "Validate filter configuration" {
if(The active filter configuration is default or system) then (yes)
:Mark all filters, sorts... as VALID;
:Mark filter active conf as VALID;
else (no it's user conf)
:Validate the filter conf;
  if(filter conf is valid) then (valid)
  :Mark all filters, sorts... as VALID;
  :Mark filter active conf as VALID;
  else(invalid)
  :Mark all filters, sorts... as VALID or INVALID individually;
  :Mark filter active conf as INVALID;
  endif;
endif
}
partition "Validate display configuration" {
if(The active display configuration is default or system) then (yes)
:Mark all pinned columns, all columns orders... as VALID;
:Mark display active conf as VALID;
else (no it's user conf)
:Validate the display conf;
  if(display conf is valid) then (valid)
  :Mark all pinned columns, all columns orders... as VALID;
  :Mark display active conf as VALID;
  else(invalid)
  :Mark all pinned columns, all columns orders... as VALID or INVALID individually;
  :Mark filter active conf as INVALID;
  endif;
endif
}
:Active configuration is fully checked;
:Send Request for data to the server;
}
stop
@enduml
